Przestępczość w Chicago
…
Dla każdej lokalizacji wyświetlamy 3 najczęściej popełniane tam typy
przzestępstw.

data %>%
  group_by(Location_Category, Type) %>%
  summarize(count = n(), .groups = "drop") %>%
  group_by(Location_Category) %>%
  slice_max(order_by = count, n = 3)

## # A tibble: 69 × 3
## # Groups:   Location_Category [23]
##    Location_Category Type               count
##    <chr>             <chr>              <int>
##  1 Accommodation     THEFT               2422
##  2 Accommodation     BATTERY             1318
##  3 Accommodation     DECEPTIVE PRACTICE   663
##  4 Airport           THEFT               2018
##  5 Airport           DECEPTIVE PRACTICE   731
##  6 Airport           BATTERY              535
##  7 Building Areas    BATTERY              227
##  8 Building Areas    ASSAULT              225
##  9 Building Areas    HOMICIDE             221
## 10 Commercial        THEFT              65014
## # ℹ 59 more rows

Wyświetlamy 10 ogółem najczęściej popełnianych przestępstw.

num_crimes <- data %>% group_by(Type) %>% count() %>% arrange(desc(n))
num_crimes

## # A tibble: 32 × 2
## # Groups:   Type [32]
##    Type                     n
##    <chr>                <int>
##  1 THEFT               294948
##  2 BATTERY             240349
##  3 CRIMINAL DAMAGE     139430
##  4 ASSAULT              97318
##  5 DECEPTIVE PRACTICE   95062
##  6 OTHER OFFENSE        81146
##  7 NARCOTICS            61158
##  8 BURGLARY             57419
##  9 MOTOR VEHICLE THEFT  51572
## 10 ROBBERY              49367
## # ℹ 22 more rows
…
